%YAML 1.1
%TAG !u! tag:unity3d.com,2011:
--- !u!162 &1
EditorUserSettings:
  m_ObjectHideFlags: 0
  serializedVersion: 4
  m_ConfigSettings:
    RecentlyUsedScenePath-0:
      value: 22424703114646680e0b0227036c761e1116152f623d28393930
      flags: 0
    RecentlyUsedScenePath-1:
      value: 224247031146466902010a161f33602317111d02233d3535621b2900caae2136ebf32f
      flags: 0
    RecentlyUsedScenePath-2:
      value: 22424703114646680e0b0227036c731f0128282520311903383b0b3af4e13877d1e433e7e229700c2b07e93d062d4f2afc031d12
      flags: 0
    RecentlyUsedScenePath-3:
      value: 22424703114646680e0b0227036c731f0128282520311903383b0b3af4e13877d1e433e7e229700f310df83f052d0471e704001fef
      flags: 0
    RecentlyUsedScenePath-4:
      value: 224247031146466804031c2e150f500726181433022932253f2c5200e1e53a3df1a812ecea3511353e0afb721130082beb
      flags: 0
    RecentlyUsedScenePath-5:
      value: 224247031146466804031c2e150f500726181433022932253f2c5200e1e53a3df1a806fbe23c3e3e2a31ec390a3b4f2afc031d12
      flags: 0
    RecentlyUsedScenePath-6:
      value: 224247031146466804031c2e150f500726181433022932253f2c5200e1e53a3df1a812ecea351b3d204cfa320d2a18
      flags: 0
    RecentlyUsedScenePath-7:
      value: 22424703114646680e0b0227036c6b1505031d03222f273d2867083debf42d
      flags: 0
    RecentlyUsedScenePath-8:
      value: 22424703114646680e0b0227036c6b0502180a232d2468252320092a
      flags: 0
    RecentlyUsedScenePath-9:
      value: 22424703114646680e0b0227036c72151802563f22213229
      flags: 0
    vcSharedLogLevel:
      value: 0d5e400f0650
      flags: 0
  m_VCAutomaticAdd: 1
  m_VCDebugCom: 0
  m_VCDebugCmd: 0
  m_VCDebugOut: 0
  m_SemanticMergeMode: 2
  m_VCShowFailedCheckout: 1
  m_VCOverwriteFailedCheckoutAssets: 1
  m_VCProjectOverlayIcons: 1
  m_VCHierarchyOverlayIcons: 1
  m_VCOtherOverlayIcons: 1
  m_VCAllowAsyncUpdate: 1
