%YAML 1.1
%TAG !u! tag:unity3d.com,2011:
--- !u!74 &7400000
AnimationClip:
  m_ObjectHideFlags: 0
  m_CorrespondingSourceObject: {fileID: 0}
  m_PrefabInstance: {fileID: 0}
  m_PrefabAsset: {fileID: 0}
  m_Name: ClickButtonAnim
  serializedVersion: 6
  m_Legacy: 0
  m_Compressed: 0
  m_UseHighQualityCurve: 1
  m_RotationCurves: []
  m_CompressedRotationCurves: []
  m_EulerCurves: []
  m_PositionCurves: []
  m_ScaleCurves: []
  m_FloatCurves: []
  m_PPtrCurves:
  - curve:
    - time: 0
      value: {fileID: 21300000, guid: 2969124cc00f14d449c6d8ebf43b295e, type: 3}
    - time: 0.033333335
      value: {fileID: 21300000, guid: 40b4789193b37014e9e1bebf46ffb262, type: 3}
    - time: 0.06666667
      value: {fileID: 21300000, guid: d2e41cd32a266b448aaa3566c7a3d53b, type: 3}
    - time: 0.1
      value: {fileID: 21300000, guid: 97bae7f43cccf1c4cbd0d375644b6cc4, type: 3}
    - time: 0.13333334
      value: {fileID: 21300000, guid: 681f668c9925ef54f9389c5b28b1f6fe, type: 3}
    - time: 0.16666667
      value: {fileID: 21300000, guid: d5c62b50ef368b949981d803273d54ea, type: 3}
    - time: 0.2
      value: {fileID: 21300000, guid: bce591c612e153943a15ed2453bb2752, type: 3}
    - time: 0.23333333
      value: {fileID: 21300000, guid: f11e94f392b35de4798c6528c8867baf, type: 3}
    - time: 0.26666668
      value: {fileID: 21300000, guid: 668a590639d0eee48ae3de5a0e195ba1, type: 3}
    - time: 0.3
      value: {fileID: 21300000, guid: d7c392e7c880f80478d935c38f10be6b, type: 3}
    - time: 0.33333334
      value: {fileID: 21300000, guid: 42ee3197cbb878c4494bca3e4dd37349, type: 3}
    - time: 0.36666667
      value: {fileID: 21300000, guid: 68516c9a622c48d46889fddeada04d5d, type: 3}
    - time: 0.4
      value: {fileID: 21300000, guid: dd1464b54437b9647a4f98462d79cd06, type: 3}
    - time: 0.43333334
      value: {fileID: 21300000, guid: 2e39ff340639b1f468ba697d65526dad, type: 3}
    - time: 0.46666667
      value: {fileID: 21300000, guid: c478024c0ce82704f8c44bee778d661d, type: 3}
    - time: 0.5
      value: {fileID: 21300000, guid: 49f630170d9f71d40b6939c2935daeaa, type: 3}
    - time: 0.53333336
      value: {fileID: 21300000, guid: 0c02045f83f857e458830bd067cc900b, type: 3}
    - time: 0.56666666
      value: {fileID: 21300000, guid: 72984bf935a324f4ba074045bf882020, type: 3}
    - time: 0.6
      value: {fileID: 21300000, guid: e7a940ccf7eb37b448bc51dec1c00d1b, type: 3}
    - time: 0.6333333
      value: {fileID: 21300000, guid: 1bf8195601f24034b9571ef179a08454, type: 3}
    attribute: m_Sprite
    path: 
    classID: 114
    script: {fileID: 11500000, guid: fe87c0e1cc204ed48ad3b37840f39efc, type: 3}
  m_SampleRate: 30
  m_WrapMode: 0
  m_Bounds:
    m_Center: {x: 0, y: 0, z: 0}
    m_Extent: {x: 0, y: 0, z: 0}
  m_ClipBindingConstant:
    genericBindings:
    - serializedVersion: 2
      path: 0
      attribute: 2015549526
      script: {fileID: 11500000, guid: fe87c0e1cc204ed48ad3b37840f39efc, type: 3}
      typeID: 114
      customType: 0
      isPPtrCurve: 1
    pptrCurveMapping:
    - {fileID: 21300000, guid: 2969124cc00f14d449c6d8ebf43b295e, type: 3}
    - {fileID: 21300000, guid: 40b4789193b37014e9e1bebf46ffb262, type: 3}
    - {fileID: 21300000, guid: d2e41cd32a266b448aaa3566c7a3d53b, type: 3}
    - {fileID: 21300000, guid: 97bae7f43cccf1c4cbd0d375644b6cc4, type: 3}
    - {fileID: 21300000, guid: 681f668c9925ef54f9389c5b28b1f6fe, type: 3}
    - {fileID: 21300000, guid: d5c62b50ef368b949981d803273d54ea, type: 3}
    - {fileID: 21300000, guid: bce591c612e153943a15ed2453bb2752, type: 3}
    - {fileID: 21300000, guid: f11e94f392b35de4798c6528c8867baf, type: 3}
    - {fileID: 21300000, guid: 668a590639d0eee48ae3de5a0e195ba1, type: 3}
    - {fileID: 21300000, guid: d7c392e7c880f80478d935c38f10be6b, type: 3}
    - {fileID: 21300000, guid: 42ee3197cbb878c4494bca3e4dd37349, type: 3}
    - {fileID: 21300000, guid: 68516c9a622c48d46889fddeada04d5d, type: 3}
    - {fileID: 21300000, guid: dd1464b54437b9647a4f98462d79cd06, type: 3}
    - {fileID: 21300000, guid: 2e39ff340639b1f468ba697d65526dad, type: 3}
    - {fileID: 21300000, guid: c478024c0ce82704f8c44bee778d661d, type: 3}
    - {fileID: 21300000, guid: 49f630170d9f71d40b6939c2935daeaa, type: 3}
    - {fileID: 21300000, guid: 0c02045f83f857e458830bd067cc900b, type: 3}
    - {fileID: 21300000, guid: 72984bf935a324f4ba074045bf882020, type: 3}
    - {fileID: 21300000, guid: e7a940ccf7eb37b448bc51dec1c00d1b, type: 3}
    - {fileID: 21300000, guid: 1bf8195601f24034b9571ef179a08454, type: 3}
  m_AnimationClipSettings:
    serializedVersion: 2
    m_AdditiveReferencePoseClip: {fileID: 0}
    m_AdditiveReferencePoseTime: 0
    m_StartTime: 0
    m_StopTime: 0.6666667
    m_OrientationOffsetY: 0
    m_Level: 0
    m_CycleOffset: 0
    m_HasAdditiveReferencePose: 0
    m_LoopTime: 1
    m_LoopBlend: 0
    m_LoopBlendOrientation: 0
    m_LoopBlendPositionY: 0
    m_LoopBlendPositionXZ: 0
    m_KeepOriginalOrientation: 0
    m_KeepOriginalPositionY: 1
    m_KeepOriginalPositionXZ: 0
    m_HeightFromFeet: 0
    m_Mirror: 0
  m_EditorCurves: []
  m_EulerEditorCurves: []
  m_HasGenericRootTransform: 0
  m_HasMotionFloatCurves: 0
  m_Events: []
